<?xml version="1.0" encoding="UTF-8" standalone="no"?>
<svg
   xmlns:dc="http://purl.org/dc/elements/1.1/"
   xmlns:cc="http://creativecommons.org/ns#"
   xmlns:rdf="http://www.w3.org/1999/02/22-rdf-syntax-ns#"
   xmlns:svg="http://www.w3.org/2000/svg"
   xmlns="http://www.w3.org/2000/svg"
   xml:space="preserve"
   viewBox="0 0 128 128"
   version="1.1"
   style="enable-background:new 0 0 128 128;"
   id="Lager_1"><metadata
     id="metadata21"><rdf:RDF><cc:Work
         rdf:about=""><dc:format>image/svg+xml</dc:format><dc:type
           rdf:resource="http://purl.org/dc/dcmitype/StillImage" /></cc:Work></rdf:RDF></metadata><defs
     id="defs19" /><style
     id="style2"
     type="text/css">
	.st0{fill:#0079BF;}
	.st1{fill:#FFFFFF;}
</style><g
     id="g12"><g
       id="g10"><g
         id="g8"><g
           id="g6"><circle
             id="circle4"
             r="50"
             cy="64"
             cx="64"
             class="st0" /></g></g></g></g><path
     id="path14"
     d="M82.4,39.5H45.6c-3.4,0-6.1,2.7-6.1,6.1v36.7c0,3.4,2.7,6.1,6.1,6.1h36.7c3.4,0,6.1-2.7,6.1-6.1V45.6  C88.5,42.2,85.8,39.5,82.4,39.5z M60.8,77.9c0,1.6-1.3,2.9-2.9,2.9h-9.1c-1.6,0-2.9-1.3-2.9-2.9V50.1c0-1.6,1.3-2.9,2.9-2.9h9.1  c1.6,0,2.9,1.3,2.9,2.9V77.9z M82.1,65.7c0,1.6-1.3,2.9-2.9,2.9h-9.1c-1.6,0-2.9-1.3-2.9-2.9V50.1c0-1.6,1.3-2.9,2.9-2.9h9.1  c1.6,0,2.9,1.3,2.9,2.9V65.7z"
     class="st1" /></svg>