<?xml version="1.0" encoding="UTF-8"?>
<svg xmlns="http://www.w3.org/2000/svg" xmlns:xlink="http://www.w3.org/1999/xlink" width="28pt" height="16pt" viewBox="0 0 28 16" version="1.1">
<g id="surface1">
<path style=" stroke:none;fill-rule:nonzero;fill:rgb(0%,0%,0%);fill-opacity:1;" d="M 8.550781 1.28125 C 6.921875 2.160156 6.761719 2.761719 6.761719 8.28125 C 6.761719 15.441406 6.484375 15.199219 14.078125 15.199219 L 19.847656 15.199219 L 20.683594 14.078125 C 21.476562 13.078125 21.558594 12.601562 21.4375 8.199219 C 21.277344 3.078125 20.960938 2.039062 19.25 1.28125 C 17.976562 0.679688 9.625 0.679688 8.550781 1.28125 Z M 13.125 7.800781 L 13.125 12.398438 L 8.75 12.398438 L 8.75 3.199219 L 13.125 3.199219 Z M 19.089844 6.199219 L 19.089844 9.199219 L 14.714844 9.199219 L 14.714844 3.199219 L 19.089844 3.199219 Z M 19.089844 6.199219 "/>
</g>
</svg>
